{
  "page": 1,
  "limit": 10,
  "pages": 213,
  "total": 2125,
  "_links": {
    "self": {
      "href": "https://app.wallabag.it/api/entries?archive=0&sort=created&order=desc&tags=&since=0&detail=full&page=1&perPage=10"
    },
    "first": {
      "href": "https://app.wallabag.it/api/entries?archive=0&sort=created&order=desc&tags=&since=0&detail=full&page=1&perPage=10"
    },
    "last": {
      "href": "https://app.wallabag.it/api/entries?archive=0&sort=created&order=desc&tags=&since=0&detail=full&page=213&perPage=10"
    },
    "next": {
      "href": "https://app.wallabag.it/api/entries?archive=0&sort=created&order=desc&tags=&since=0&detail=full&page=2&perPage=10"
    }
  },
  "_embedded": {
    "items": [
      {
        "is_archived": 0,
        "is_starred": 0,
        "user_name": "person",
        "user_email": "person@example.com",
        "user_id": 123456,
        "tags": [],
        "is_public": false,
        "id": 20266258,
        "uid": null,
        "title": "‘Cranky’ Opossum Lands in Hospital After Eating Costco Bakery Item",
        "url": "https://www.msn.com/en-us/health/wellness/cranky-opossum-lands-in-hospital-after-eating-costco-bakery-item/ar-AA1z5c2E",
        "hashed_url": "a08aed2ed1924cef29945fc2dc3ede73dd6e76e1",
        "origin_url": null,
        "given_url": "https://www.msn.com/en-us/health/wellness/cranky-opossum-lands-in-hospital-after-eating-costco-bakery-item/ar-AA1z5c2E",
        "hashed_given_url": "a08aed2ed1924cef29945fc2dc3ede73dd6e76e1",
        "archived_at": null,
        "content": "<div class=\"article-image-slot image-slot-placeholder\" data-is-first=\"true\" data-doc-id=\"cms/api/amp/image/AA1z5exS\"><slot name=\"AA1z5c2E-image-cms/api/amp/image/AA1z5exS\"></slot></div><p data-t=\"{&quot;n&quot;:&quot;blueLinks&quot;}\">A “cranky” but curious opossum found itself in the hospital after indulging in <a href=\"https://www.mensjournal.com/news/costco-shoppers-bakery-muffins-change\" target=\"_blank\" data-t=\"{&quot;n&quot;:&quot;destination&quot;,&quot;t&quot;:13,&quot;b&quot;:1,&quot;c.t&quot;:7}\">a popular Costco dessert</a>, <a href=\"https://www.instagram.com/newildliferehab/\" target=\"_blank\" data-t=\"{&quot;n&quot;:&quot;destination&quot;,&quot;t&quot;:13,&quot;b&quot;:1,&quot;c.t&quot;:7}\">Nebraska Wildlife Rehab</a> reported on Instagram.</p><div class=\"intra-article-module\" data-t=\"{&quot;n&quot;:&quot;intraArticle&quot;,&quot;t&quot;:13}\"><slot name=\"AA1z5c2E-intraArticleModule-0\"></slot></div><p data-t=\"{&quot;n&quot;:&quot;blueLinks&quot;}\" class=\"continue-read-break\">Real estate agent Kim Doggett left a <a href=\"https://www.mensjournal.com/health-fitness/costco-all-in-one-home-gym\" target=\"_blank\" data-t=\"{&quot;n&quot;:&quot;destination&quot;,&quot;t&quot;:13,&quot;b&quot;:1,&quot;c.t&quot;:7}\">Costco</a> chocolate mousse cake sitting on her back patio after running out of fridge space. “I always have a house full and <a href=\"https://www.mensjournal.com/news/costco-reddit-reacts-new-chicken-bacon-sandwich\" target=\"_blank\" data-t=\"{&quot;n&quot;:&quot;destination&quot;,&quot;t&quot;:13,&quot;b&quot;:1,&quot;c.t&quot;:7}\">we cook a lot</a>,” Doggett told <a href=\"https://www.forbes.com/sites/amandakooser/2025/02/11/opossum-hospitalized-after-gorging-on-a-costco-chocolate-cake/\" target=\"_blank\" data-t=\"{&quot;n&quot;:&quot;destination&quot;,&quot;t&quot;:13,&quot;b&quot;:1,&quot;c.t&quot;:7}\"><em>Forbes</em></a>, “and when you run out of room in the fridge you just sit it on the table outside in the winter.” It was her son who found the “choc-oholic” critter munching the cake. When he went out to drop some peanut butter balls which needed to firm up, he found a mostly eaten cake and chocolate footprints leading to an animal that “just didn’t look right.”</p><div class=\"intra-article-module\" data-t=\"{&quot;n&quot;:&quot;intraArticle&quot;,&quot;t&quot;:13}\"><p data-t=\"{&quot;n&quot;:&quot;blueLinks&quot;}\">“We googled chocolate with possums because I know with dogs it’s poisonous and thought this would not be good for this little girl,” Doggett explained.</p><p data-t=\"{&quot;n&quot;:&quot;blueLinks&quot;}\" style=\"text-align: center;\"><strong><a href=\"https://www.mensjournal.com/news/costco-members-wildest-return-items-reddit\" target=\"_blank\" data-t=\"{&quot;n&quot;:&quot;destination&quot;,&quot;t&quot;:13,&quot;b&quot;:1,&quot;c.t&quot;:7}\">Related: Costco Members Share Wildest Items They’ve Seen Customers Return</a></strong></p><p data-t=\"{&quot;n&quot;:&quot;blueLinks&quot;}\">Nebraska Wildlife Rehab eventually took control of the opossum and gave it a full medical exam which revealed the chocolate may have been the least of its worries. Her bloodwork found she was suffering from lead toxicity, which is unfortunately “a common issue” for wildlife. “This is a common issue in wildlife, with different causes for different species, and it will take several weeks of treatment and supportive care to chelate the lead from her body,” the center’s executive director, Laura Stastny, told <em>Forbes</em>.</p><div class=\"intra-article-module\" data-t=\"{&quot;n&quot;:&quot;intraArticle&quot;,&quot;t&quot;:13}\"><p data-t=\"{&quot;n&quot;:&quot;blueLinks&quot;}\">The marsupial was given activated charcoal and lots of fluids, and will be released back into the wild once she’s made a full recovery. While the center’s doctors noted that she had made it through a little more than half of the cake, rather than the whole thing, the opossum was “a little cranky about our ‘zero chocolate’ policy.”</p><div class=\"intra-article-module\" data-t=\"{&quot;n&quot;:&quot;intraArticle&quot;,&quot;t&quot;:13}\"><p data-t=\"{&quot;n&quot;:&quot;blueLinks&quot;}\">Doggett is hoping to see the opossum back in her neighborhood once it’s out of the hospital, and already knows what she won’t be serving at its coming-home party. “Definitely not chocolate!” the realtor pledged.</p><div class=\"instagram-slot\"><div class=\"intra-article-module-bottom-slot\" data-t=\"{&quot;n&quot;:&quot;intraArticle&quot;,&quot;t&quot;:13}\"></div></div></div></div></div>",
        "created_at": "2025-02-15T12:55:34+0100",
        "updated_at": "2025-02-15T12:55:34+0100",
        "published_at": "2025-02-14T21:41:37+0100",
        "published_by": [
          "Declan Gallagher"
        ],
        "starred_at": null,
        "annotations": [],
        "mimetype": "text/html; charset=UTF-8",
        "language": null,
        "reading_time": 4,
        "domain_name": "www.msn.com",
        "preview_picture": "https://img-s-msn-com.akamaized.net/tenant/amp/entityid/AA1z5exS.img?w=1200&h=800&m=4&q=89",
        "http_status": "200",
        "headers": {
          "cache-control": "no-store",
          "pragma": "no-cache",
          "transfer-encoding": "chunked",
          "content-type": "text/html; charset=UTF-8",
          "vary": "Accept-Encoding",
          "set-cookie": "_C_ETH=1; domain=.msn.com; path=/; secure; httponly, _C_Auth=, USRLOC=; expires=Mon, 15 Feb 2027 11:55:34 GMT; domain=.msn.com; path=/; secure; samesite=none; httponly, MUID=0507018927676A4C38EC141D26EC6B74; expires=Thu, 12 Mar 2026 11:55:34 GMT; domain=.msn.com; path=/; secure; samesite=none, MUIDB=0507018927676A4C38EC141D26EC6B74; expires=Thu, 12 Mar 2026 11:55:34 GMT; path=/; httponly, _EDGE_S=F=1&SID=17C04751FDA262991F8C52C5FCF363C0; domain=.msn.com; path=/; httponly, _EDGE_V=1; expires=Thu, 12 Mar 2026 11:55:34 GMT; domain=.msn.com; path=/; httponly",
          "access-control-allow-methods": "HEAD,GET,OPTIONS",
          "accept-ch": "Sec-CH-UA-Arch, Sec-CH-UA-Bitness, Sec-CH-UA-Full-Version, Sec-CH-UA-Full-Version-List, Sec-CH-UA-Mobile, Sec-CH-UA-Model, Sec-CH-UA-Platform, Sec-CH-UA-Platform-Version, Sec-CH-Prefers-Color-Scheme, UA-Bitness, UA-Arch, UA-Full-Version, UA-Mobile, UA-Model, UA-Platform-Version, UA-Platform, UA",
          "content-security-policy": "block-all-mixed-content;connect-src 'self' data: 'unsafe-inline' 'unsafe-eval' https: blob: wss:;default-src 'self' data: 'unsafe-inline' 'unsafe-eval' https: blob: wss: 'report-sample';font-src 'self' data: https: blob: wss: assets.msn.com assets2.msn.com assets.msn.cn assets2.msn.cn;frame-ancestors 'self' int1.msn.com ntp.msn.cn ntp.msn.com windows-int1.msn.com windows.msn.cn windows.msn.com www.bing.com www.msn.com mathsolver.microsoft.com mathsolver-dev.microsoft.com chrome-extension://lklfbkdigihjaaeamncibechhgalldgl *.office.com;media-src 'self' https: blob:;report-to csp-endpoint;worker-src 'self' https: blob: 'report-sample';",
          "x-content-type-options": "nosniff",
          "x-fabric-cluster": "pmeprodneu",
          "x-frame-options": "SAMEORIGIN",
          "x-ua-compatible": "IE=Edge;chrome=1",
          "x-xss-protection": "1",
          "sw-cache-control": "no-store",
          "nel": "{\"report_to\":\"network-errors\",\"max_age\":604800,\"success_fraction\":0.001,\"failure_fraction\":0.5}",
          "report-to": "{\"group\":\"network-errors\",\"max_age\":604800,\"endpoints\":[{\"url\":\"https://deff.nelreports.net/api/report?cat=msn\"}]},{\"group\":\"csp-endpoint\",\"max_age\":86400,\"endpoints\":[{\"url\":\"https://deff.nelreports.net/api/report\"}]}",
          "x-ceto-ref": "67b080b68389416584b3d0fef9710809|AFD:51DF6DDA8D7C4966811774D83FB9396C|2025-02-15T11:55:34.659Z",
          "x-cache": "CONFIG_NOCACHE",
          "x-msedge-ref": "Ref A: 51DF6DDA8D7C4966811774D83FB9396C Ref B: FRA31EDGE0515 Ref C: 2025-02-15T11:55:34Z",
          "date": "Sat, 15 Feb 2025 11:55:34 GMT"
        },
        "_links": {
          "self": {
            "href": "/api/entries/20266258"
          }
        }
      },
      {
        "is_archived": 0,
        "is_starred": 0,
        "user_name": "person",
        "user_email": "person@example.com",
        "user_id": 123456,
        "tags": [],
        "is_public": false,
        "id": 20280913,
        "uid": null,
        "title": "403 Forbidden",
        "url": "https://slejournal.springeropen.com/articles/10.1186/s40561-024-00316-7",
        "hashed_url": "273a2aaa8c52b535305d7398d958535f96a78c56",
        "origin_url": null,
        "given_url": "https://slejournal.springeropen.com/articles/10.1186/s40561-024-00316-7",
        "hashed_given_url": "273a2aaa8c52b535305d7398d958535f96a78c56",
        "archived_at": null,
        "content": "403 Forbidden\n      \n      <p>Blocked</p>\n      <h3>Debug Information</h3>\n      <p>Server: cache-fra-etou8220037-FRA</p>\n      <p>Client: 138.201.122.115</p>\n      <p>Debug: 0149f47eabf9a20d0893e2a44e5a6323</p>\n      <hr /><p>Varnish cache server</p>",
        "created_at": "2025-02-18T15:30:30+0100",
        "updated_at": "2025-02-18T15:30:30+0100",
        "published_at": null,
        "published_by": null,
        "starred_at": null,
        "annotations": [],
        "mimetype": null,
        "language": null,
        "reading_time": 0,
        "domain_name": "slejournal.springeropen.com",
        "preview_picture": null,
        "http_status": "403",
        "headers": {
          "connection": "close",
          "content-length": "547",
          "server": "Varnish",
          "retry-after": "0",
          "client-ip": "138.201.122.115",
          "client-debug": "0149f47eabf9a20d0893e2a44e5a6323",
          "accept-ranges": "bytes",
          "date": "Tue, 18 Feb 2025 14:30:30 GMT",
          "via": "1.1 varnish",
          "x-served-by": "cache-fra-etou8220037-FRA",
          "x-cache": "MISS",
          "x-cache-hits": "0",
          "x-timer": "S1739889031.554230,VS0,VE0",
          "alt-svc": "h3=\":443\";ma=86400,h3-29=\":443\";ma=86400,h3-27=\":443\";ma=86400"
        },
        "_links": {
          "self": {
            "href": "/api/entries/20280913"
          }
        }
      },
      {
        "is_archived": 0,
        "is_starred": 0,
        "user_name": "person",
        "user_email": "person@example.com",
        "user_id": 123456,
        "tags": [],
        "is_public": false,
        "id": 20266278,
        "uid": null,
        "title": "‘Cranky’ Opossum Lands in Hospital After Eating Costco Bakery Item",
        "url": "https://www.msn.com/en-us/health/wellness/cranky-opossum-lands-in-hospital-after-eating-costco-bakery-item/ar-AA1z5c2E",
        "hashed_url": "a08aed2ed1924cef29945fc2dc3ede73dd6e76e1",
        "origin_url": null,
        "given_url": "https://www.msn.com/en-us/health/wellness/cranky-opossum-lands-in-hospital-after-eating-costco-bakery-item/ar-AA1z5c2E",
        "hashed_given_url": "a08aed2ed1924cef29945fc2dc3ede73dd6e76e1",
        "archived_at": null,
        "content": "<div class=\"article-image-slot image-slot-placeholder\" data-is-first=\"true\" data-doc-id=\"cms/api/amp/image/AA1z5exS\"><slot name=\"AA1z5c2E-image-cms/api/amp/image/AA1z5exS\"></slot></div><p data-t=\"{&quot;n&quot;:&quot;blueLinks&quot;}\">A “cranky” but curious opossum found itself in the hospital after indulging in <a href=\"https://www.mensjournal.com/news/costco-shoppers-bakery-muffins-change\" target=\"_blank\" data-t=\"{&quot;n&quot;:&quot;destination&quot;,&quot;t&quot;:13,&quot;b&quot;:1,&quot;c.t&quot;:7}\">a popular Costco dessert</a>, <a href=\"https://www.instagram.com/newildliferehab/\" target=\"_blank\" data-t=\"{&quot;n&quot;:&quot;destination&quot;,&quot;t&quot;:13,&quot;b&quot;:1,&quot;c.t&quot;:7}\">Nebraska Wildlife Rehab</a> reported on Instagram.</p><div class=\"intra-article-module\" data-t=\"{&quot;n&quot;:&quot;intraArticle&quot;,&quot;t&quot;:13}\"><slot name=\"AA1z5c2E-intraArticleModule-0\"></slot></div><p data-t=\"{&quot;n&quot;:&quot;blueLinks&quot;}\" class=\"continue-read-break\">Real estate agent Kim Doggett left a <a href=\"https://www.mensjournal.com/health-fitness/costco-all-in-one-home-gym\" target=\"_blank\" data-t=\"{&quot;n&quot;:&quot;destination&quot;,&quot;t&quot;:13,&quot;b&quot;:1,&quot;c.t&quot;:7}\">Costco</a> chocolate mousse cake sitting on her back patio after running out of fridge space. “I always have a house full and <a href=\"https://www.mensjournal.com/news/costco-reddit-reacts-new-chicken-bacon-sandwich\" target=\"_blank\" data-t=\"{&quot;n&quot;:&quot;destination&quot;,&quot;t&quot;:13,&quot;b&quot;:1,&quot;c.t&quot;:7}\">we cook a lot</a>,” Doggett told <a href=\"https://www.forbes.com/sites/amandakooser/2025/02/11/opossum-hospitalized-after-gorging-on-a-costco-chocolate-cake/\" target=\"_blank\" data-t=\"{&quot;n&quot;:&quot;destination&quot;,&quot;t&quot;:13,&quot;b&quot;:1,&quot;c.t&quot;:7}\"><em>Forbes</em></a>, “and when you run out of room in the fridge you just sit it on the table outside in the winter.” It was her son who found the “choc-oholic” critter munching the cake. When he went out to drop some peanut butter balls which needed to firm up, he found a mostly eaten cake and chocolate footprints leading to an animal that “just didn’t look right.”</p><div class=\"intra-article-module\" data-t=\"{&quot;n&quot;:&quot;intraArticle&quot;,&quot;t&quot;:13}\"><p data-t=\"{&quot;n&quot;:&quot;blueLinks&quot;}\">“We googled chocolate with possums because I know with dogs it’s poisonous and thought this would not be good for this little girl,” Doggett explained.</p><p data-t=\"{&quot;n&quot;:&quot;blueLinks&quot;}\" style=\"text-align: center;\"><strong><a href=\"https://www.mensjournal.com/news/costco-members-wildest-return-items-reddit\" target=\"_blank\" data-t=\"{&quot;n&quot;:&quot;destination&quot;,&quot;t&quot;:13,&quot;b&quot;:1,&quot;c.t&quot;:7}\">Related: Costco Members Share Wildest Items They’ve Seen Customers Return</a></strong></p><p data-t=\"{&quot;n&quot;:&quot;blueLinks&quot;}\">Nebraska Wildlife Rehab eventually took control of the opossum and gave it a full medical exam which revealed the chocolate may have been the least of its worries. Her bloodwork found she was suffering from lead toxicity, which is unfortunately “a common issue” for wildlife. “This is a common issue in wildlife, with different causes for different species, and it will take several weeks of treatment and supportive care to chelate the lead from her body,” the center’s executive director, Laura Stastny, told <em>Forbes</em>.</p><div class=\"intra-article-module\" data-t=\"{&quot;n&quot;:&quot;intraArticle&quot;,&quot;t&quot;:13}\"><p data-t=\"{&quot;n&quot;:&quot;blueLinks&quot;}\">The marsupial was given activated charcoal and lots of fluids, and will be released back into the wild once she’s made a full recovery. While the center’s doctors noted that she had made it through a little more than half of the cake, rather than the whole thing, the opossum was “a little cranky about our ‘zero chocolate’ policy.”</p><div class=\"intra-article-module\" data-t=\"{&quot;n&quot;:&quot;intraArticle&quot;,&quot;t&quot;:13}\"><p data-t=\"{&quot;n&quot;:&quot;blueLinks&quot;}\">Doggett is hoping to see the opossum back in her neighborhood once it’s out of the hospital, and already knows what she won’t be serving at its coming-home party. “Definitely not chocolate!” the realtor pledged.</p><div class=\"instagram-slot\"><div class=\"intra-article-module-bottom-slot\" data-t=\"{&quot;n&quot;:&quot;intraArticle&quot;,&quot;t&quot;:13}\"></div></div></div></div></div>",
        "created_at": "2025-02-15T12:55:34+0100",
        "updated_at": "2025-02-15T12:55:34+0100",
        "published_at": "2025-02-14T21:41:37+0100",
        "published_by": [
          "Declan Gallagher"
        ],
        "starred_at": null,
        "annotations": [],
        "mimetype": "text/html; charset=UTF-8",
        "language": null,
        "reading_time": 122,
        "domain_name": "www.msn.com",
        "preview_picture": "https://img-s-msn-com.akamaized.net/tenant/amp/entityid/AA1z5exS.img?w=1200&h=800&m=4&q=89",
        "http_status": "200",
        "headers": {
          "cache-control": "no-store",
          "pragma": "no-cache",
          "transfer-encoding": "chunked",
          "content-type": "text/html; charset=UTF-8",
          "vary": "Accept-Encoding",
          "set-cookie": "_C_ETH=1; domain=.msn.com; path=/; secure; httponly, _C_Auth=, USRLOC=; expires=Mon, 15 Feb 2027 11:55:34 GMT; domain=.msn.com; path=/; secure; samesite=none; httponly, MUID=0507018927676A4C38EC141D26EC6B74; expires=Thu, 12 Mar 2026 11:55:34 GMT; domain=.msn.com; path=/; secure; samesite=none, MUIDB=0507018927676A4C38EC141D26EC6B74; expires=Thu, 12 Mar 2026 11:55:34 GMT; path=/; httponly, _EDGE_S=F=1&SID=17C04751FDA262991F8C52C5FCF363C0; domain=.msn.com; path=/; httponly, _EDGE_V=1; expires=Thu, 12 Mar 2026 11:55:34 GMT; domain=.msn.com; path=/; httponly",
          "access-control-allow-methods": "HEAD,GET,OPTIONS",
          "accept-ch": "Sec-CH-UA-Arch, Sec-CH-UA-Bitness, Sec-CH-UA-Full-Version, Sec-CH-UA-Full-Version-List, Sec-CH-UA-Mobile, Sec-CH-UA-Model, Sec-CH-UA-Platform, Sec-CH-UA-Platform-Version, Sec-CH-Prefers-Color-Scheme, UA-Bitness, UA-Arch, UA-Full-Version, UA-Mobile, UA-Model, UA-Platform-Version, UA-Platform, UA",
          "content-security-policy": "block-all-mixed-content;connect-src 'self' data: 'unsafe-inline' 'unsafe-eval' https: blob: wss:;default-src 'self' data: 'unsafe-inline' 'unsafe-eval' https: blob: wss: 'report-sample';font-src 'self' data: https: blob: wss: assets.msn.com assets2.msn.com assets.msn.cn assets2.msn.cn;frame-ancestors 'self' int1.msn.com ntp.msn.cn ntp.msn.com windows-int1.msn.com windows.msn.cn windows.msn.com www.bing.com www.msn.com mathsolver.microsoft.com mathsolver-dev.microsoft.com chrome-extension://lklfbkdigihjaaeamncibechhgalldgl *.office.com;media-src 'self' https: blob:;report-to csp-endpoint;worker-src 'self' https: blob: 'report-sample';",
          "x-content-type-options": "nosniff",
          "x-fabric-cluster": "pmeprodneu",
          "x-frame-options": "SAMEORIGIN",
          "x-ua-compatible": "IE=Edge;chrome=1",
          "x-xss-protection": "1",
          "sw-cache-control": "no-store",
          "nel": "{\"report_to\":\"network-errors\",\"max_age\":604800,\"success_fraction\":0.001,\"failure_fraction\":0.5}",
          "report-to": "{\"group\":\"network-errors\",\"max_age\":604800,\"endpoints\":[{\"url\":\"https://deff.nelreports.net/api/report?cat=msn\"}]},{\"group\":\"csp-endpoint\",\"max_age\":86400,\"endpoints\":[{\"url\":\"https://deff.nelreports.net/api/report\"}]}",
          "x-ceto-ref": "67b080b68389416584b3d0fef9710809|AFD:51DF6DDA8D7C4966811774D83FB9396C|2025-02-15T11:55:34.659Z",
          "x-cache": "CONFIG_NOCACHE",
          "x-msedge-ref": "Ref A: 51DF6DDA8D7C4966811774D83FB9396C Ref B: FRA31EDGE0515 Ref C: 2025-02-15T11:55:34Z",
          "date": "Sat, 15 Feb 2025 11:55:34 GMT"
        },
        "_links": {
          "self": {
            "href": "/api/entries/20266258"
          }
        }
      }
    ]
  }
}